{
    "evc":[
    ],
    "evo":[
    ],
    "evn":[
        {
            "title": "EV Nova El Capitan Fix",
            "file_name": "",
            "size": "7.5 MB",
            "author": "Guy",
            "download_url": "",
            "custom_url": "applescript://com.apple.scripteditor?action=new&script=tell%20application%20%22Finder%22%20to%20set%20evn%20to%20application%20file%20id%20%22com.AmbrosiaSW.EV_Nova%22%20as%20text%0Aset%20evnPath%20to%20quoted%20form%20of%20(POSIX%20path%20of%20evn%20%26%20%22%2FContents%2FMacOS%2FEV%20Nova%22)%0Ado%20shell%20script%20%22echo%200%3A0F1F4400%20%7C%20xxd%20-r%20%7C%20dd%20bs%3D1%20seek%3D112072%20conv%3Dnotrunc%20of%3D%22%20%26%20evnPath%0Ado%20shell%20script%20%22echo%200%3A0F1F4400%20%7C%20xxd%20-r%20%7C%20dd%20bs%3D1%20seek%3D112242%20conv%3Dnotrunc%20of%3D%22%20%26%20evnPath%0Adisplay%20alert%20%22EV%20Nova%20Patched%22%20message%20evn",
            "content_type": "applescript",
            "upload_date": "15/02/2016",
            "category": "Utilities",
            "votes": "0",
            "star_rating": "0",
            "download_count": "0",
            "body": "This patch is necessary to make EV Nova work on OS 10.11 and later. Click the link to open it in Script Editor, then click the Run button to apply."
        },
        {
            "title": "EV Classic for Nova 1.1.1",
            "file_name": "EV_Classic_for_Nova_1.1.1.zip",
            "size": "7.5 MB",
            "author": "Guy",
            "download_url": "",
            "s3_url": "ambrosiaevn/addons/evn/EV_Classic_for_Nova_1.1.1.zip",
            "content_type": "application/zip",
            "upload_date": "15/02/2016",
            "category": "Plugins",
            "votes": "0",
            "star_rating": "0",
            "download_count": "0",
            "body": "Port of the original Escape Velocity to the Nova engine.\r\n15 February 2016: Fixed \"damaged\" error with launcher."
        },
        {
            "title": "rEV 1.1b5",
            "file_name": "rEV_1.1b5.zip",
            "size": "28.8 MB",
            "author": "Guy",
            "download_url": "",
            "s3_url": "ambrosiaevn/addons/evn/rEV_1.1b5.zip",
            "content_type": "application/zip",
            "upload_date": "06/05/2014",
            "category": "Plugins",
            "votes": "0",
            "star_rating": "0",
            "download_count": "0",
            "body": "Kris Quistorff's rEVisited graphical remake and expansion, rebuilt for EV Classic for Nova.\r\n6 May 2014: Minor update - allows Gunboats to be captured as fighters."
        },
        {
            "title": "The Frozen Heart",
            "file_name": "The_Frozen_Heart.zip",
            "size": "7.3 MB",
            "author": "Guy",
            "download_url": "",
            "s3_url": "ambrosiaevn/addons/evn/The_Frozen_Heart.zip",
            "content_type": "application/zip",
            "upload_date": "06/05/2014",
            "category": "Plugins",
            "votes": "0",
            "star_rating": "0",
            "download_count": "0",
            "body": "Martin Turner's classic adventure, ported to the Nova engine."
        },
        {
            "title": "EV Override for Nova 1.1.1",
            "file_name": "EV_Override_for_Nova_1.1.1.zip",
            "size": "8.6 MB",
            "author": "Guy",
            "download_url": "",
            "s3_url": "ambrosiaevn/addons/evn/EV_Override_for_Nova_1.1.1.zip",
            "content_type": "application/zip",
            "upload_date": "15/02/2016",
            "category": "Plugins",
            "votes": "0",
            "star_rating": "0",
            "download_count": "0",
            "body": "Port of the original EV Override to the Nova engine.\r\n15 February 2016: Fixed \"damaged\" error with launcher."
        },
        {
            "title": "EVO Extras",
            "file_name": "EVO_Extras.zip",
            "size": "148 KB",
            "author": "Guy",
            "download_url": "",
            "s3_url": "ambrosiaevn/addons/evn/EVO_Extras.zip",
            "content_type": "application/zip",
            "upload_date": "15/02/2016",
            "category": "Plugins",
            "votes": "0",
            "star_rating": "0",
            "download_count": "0",
            "body": "Collection of five small plug-ins for EV Override for Nova."
        },
        {
            "title": "EVO Facelift 1.0.5",
            "file_name": "EVO_Facelift_1.0.5.zip",
            "size": "21.9 MB",
            "author": "Guy",
            "download_url": "",
            "s3_url": "ambrosiaevn/addons/evn/EVO_Facelift_1.0.5.zip",
            "content_type": "application/zip",
            "upload_date": "31/03/2010",
            "category": "Plugins",
            "votes": "0",
            "star_rating": "0",
            "download_count": "0",
            "body": "Tim Morgan's graphical facelift for EV Override for Nova.\r\n31 March 2010: 1.0.5 released."
        },
        {
            "title": "Cold Fusion for Nova 1.0.1",
            "file_name": "Cold_Fusion_for_Nova_1.0.1.zip",
            "size": "10.3 MB",
            "author": "Guy",
            "download_url": "",
            "s3_url": "ambrosiaevn/addons/evn/Cold_Fusion_for_Nova_1.0.1.zip",
            "content_type": "application/zip",
            "upload_date": "20/10/2009",
            "category": "Plugins",
            "votes": "0",
            "star_rating": "0",
            "download_count": "0",
            "body": "Dreamwave Studios' Cold Fusion graphics replacement for EV Override, ported to the Nova engine by Dr. Trowel.\r\n20 October 2009: 1.0.1 released with some minor fixes and improvements."
        },
        {
            "title": "Dodge That",
            "file_name": "Dodge_That.zip",
            "size": "86 KB",
            "author": "Guy",
            "download_url": "",
            "s3_url": "ambrosiaevn/addons/evn/Dodge_That.zip",
            "content_type": "application/zip",
            "upload_date": "20/10/2009",
            "category": "Plugins",
            "votes": "0",
            "star_rating": "0",
            "download_count": "0",
            "body": "Dodge the crazy torpedo for as long as you can! Start a new Dodge That pilot to begin."
        },
        {
            "title": "Collision Damage",
            "file_name": "Collision_Damage.zip",
            "size": "86 KB",
            "author": "Guy",
            "download_url": "",
            "s3_url": "ambrosiaevn/addons/evn/Collision_Damage.zip",
            "content_type": "application/zip",
            "upload_date": "20/10/2009",
            "category": "Plugins",
            "votes": "0",
            "star_rating": "0",
            "download_count": "0",
            "body": "Looking for a challenge? With Collision Damage asteroids are no longer the friendly background decorations they once were. Visit any mission computer to begin."
        },
        {
            "title": "Shields",
            "file_name": "Shields.zip",
            "size": "307 KB",
            "author": "Guy",
            "download_url": "",
            "s3_url": "ambrosiaevn/addons/evn/Shields.zip",
            "content_type": "application/zip",
            "upload_date": "20/10/2009",
            "category": "Plugins",
            "votes": "0",
            "star_rating": "0",
            "download_count": "0",
            "body": "Nova shield graphics plug by Dark Revenant, tweaked for better scaling and masking plus a version for ARPIA2."
        },
        {
            "title": "Nova Roid Fix",
            "file_name": "Nova_Roid_Fix.zip",
            "size": "551 KB",
            "author": "Guy",
            "download_url": "",
            "s3_url": "ambrosiaevn/addons/evn/Nova_Roid_Fix.zip",
            "content_type": "application/zip",
            "upload_date": "20/10/2009",
            "category": "Plugins",
            "votes": "0",
            "star_rating": "0",
            "download_count": "0",
            "body": "Nova shield graphics plug by Dark Revenant, tweaked for better scaling and masking plus a version for ARPIA2."
        },
        {
            "title": "MultiBuy",
            "file_name": "MultiBuy.zip",
            "size": "103 KB",
            "author": "Guy",
            "download_url": "",
            "s3_url": "ambrosiaevn/addons/evn/MultiBuy.zip",
            "content_type": "application/zip",
            "upload_date": "20/10/2009",
            "category": "Plugins",
            "votes": "0",
            "star_rating": "0",
            "download_count": "0",
            "body": "Sick of clicking that Buy button a thousand times? Get MultiBuy, the easy way to buy and sell in bulk!"
        },
        {
            "title": "MissionComputer 4.3",
            "file_name": "MissionComputer430.zip",
            "size": "7.5 MB",
            "author": "Guy",
            "download_url": "",
            "s3_url": "ambrosiaevn/addons/evn/MissionComputer430.zip",
            "content_type": "application/zip",
            "upload_date": "24/07/2017",
            "category": "Utilities",
            "votes": "0",
            "star_rating": "0",
            "download_count": "0",
            "body": "The one-and-only plug-in editor for Mac. Written by David Arthur, minor updates by myself.\r\n24 July 2017: 4.3 released with sound import/export."
        },
        {
            "title": "SpacePort 1.3.1",
            "file_name": "SpacePort.zip",
            "size": "2.0 MB",
            "author": "Guy",
            "download_url": "",
            "s3_url": "ambrosiaevn/addons/evn/SpacePort.zip",
            "content_type": "application/zip",
            "upload_date": "09/03/2017",
            "category": "Utilities",
            "votes": "0",
            "star_rating": "0",
            "download_count": "0",
            "body": "Program for porting EV and EVO plug-ins to the Nova engine, written by Michael Hewitt, Brian Norwood and myself.\r\n<a href=\"https://cdn.getforge.com/evstuff.getforge.io/1504770917/utilities/SpacePort_source.zip\">Source code</a> (REALbasic).\r\n9 March 2017: 1.3.1 released."
        },
        {
            "title": "Plug-in Archiver 2.4.2",
            "file_name": "Plug-in_Archiver.zip",
            "size": "1.5 MB",
            "author": "Guy",
            "download_url": "",
            "s3_url": "ambrosiaevn/addons/evn/Plug-in_Archiver.zip",
            "content_type": "application/zip",
            "upload_date": "05/03/2012",
            "category": "Utilities",
            "votes": "0",
            "star_rating": "0",
            "download_count": "0",
            "body": "A handy utility for Mac users to quickly archive plug-ins in the most cross-platform compatible way.\r\n5 March 2012: 2.4.2 released."
        },
        {
            "title": "Plug-in Extractor for Windows",
            "file_name": "Plug-in_Extractor.zip",
            "size": "5.0 MB",
            "author": "Guy",
            "download_url": "",
            "s3_url": "ambrosiaevn/addons/evn/Plug-in_Extractor.zip",
            "content_type": "application/zip",
            "upload_date": "27/07/2013",
            "category": "Utilities",
            "votes": "0",
            "star_rating": "0",
            "download_count": "0",
            "body": "One-click plug-in extraction and conversion for Windows users - handles almost any archive format downloaded from the Nova Addons.\r\n27 June 2013: Initial release."
        },
        {
            "title": "EV Nova Launcher 2.1.1",
            "file_name": "EV_Nova_Launcher_2.1.1.zip",
            "size": "148 KB",
            "author": "Guy",
            "download_url": "",
            "s3_url": "ambrosiaevn/addons/evn/EV_Nova_Launcher_2.1.1.zip",
            "content_type": "application/zip",
            "upload_date": "15/02/2016",
            "category": "Utilities",
            "votes": "0",
            "star_rating": "0",
            "download_count": "0",
            "body": "Template launcher program for installing a specific plug-in package or total conversion and running it.\r\n15 February 2016: 2.1.1 released to fix \"damaged\" error."
        },
        {
            "title": "MakeSnd",
            "file_name": "MakeSnd.zip",
            "size": "60 KB",
            "author": "Guy",
            "download_url": "",
            "s3_url": "ambrosiaevn/addons/evn/MakeSnd.zip",
            "content_type": "application/zip",
            "upload_date": "09/03/2017",
            "category": "Utilities",
            "votes": "0",
            "star_rating": "0",
            "download_count": "0",
            "body": "Utility for making 'snd' resources from audio files.\r\n9 March 2017: Rewritten to be more robust."
        },
        {
            "title": "pilotcrypt",
            "file_name": "pilotcrypt.zip",
            "size": "5 KB",
            "author": "Guy",
            "download_url": "",
            "s3_url": "ambrosiaevn/addons/evn/pilotcrypt.zip",
            "content_type": "application/zip",
            "upload_date": "09/03/2017",
            "category": "Utilities",
            "votes": "0",
            "star_rating": "0",
            "download_count": "0",
            "body": "CLI tool for decrypting/re-encrypting Mac pilot files (based on code from an old EV/O program). See also the Pilot File Format in the Guides section."
        },
        {
            "title": "Resource ID Guide",
            "file_name": "Resource_ID_Guide.htm",
            "size": "21 KB",
            "author": "Guy",
            "download_url": "",
            "s3_url": "ambrosiaevn/addons/evn/Resource_ID_Guide.htm",
            "content_type": "text/html",
            "upload_date": "23/02/2009",
            "category": "Guides",
            "votes": "0",
            "star_rating": "0",
            "download_count": "0",
            "body": ""
        },
        {
            "title": "Audio Guide",
            "file_name": "Audio_Guide.htm",
            "size": "4 KB",
            "author": "Guy",
            "download_url": "",
            "s3_url": "ambrosiaevn/addons/evn/Audio_Guide.htm",
            "content_type": "text/html",
            "upload_date": "16/06/2012",
            "category": "Guides",
            "votes": "0",
            "star_rating": "0",
            "download_count": "0",
            "body": ""
        },
        {
            "title": "Pilot File Format",
            "file_name": "pilotformat.txt",
            "size": "6 KB",
            "author": "Guy",
            "download_url": "",
            "s3_url": "ambrosiaevn/addons/evn/pilotformat.txt",
            "content_type": "text/plain",
            "upload_date": "15/02/2009",
            "category": "Guides",
            "votes": "0",
            "star_rating": "0",
            "download_count": "0",
            "body": ""
        }
    ]
}